ADRIANA EMPERATRIZ HERNANDEZ SANCHEZ           V       16118034              F       19820924                  1600,00                  0,00                  1600,00
AITZA ANDREINA ESPINOZA GONZALEZ              V       16213954              F       19840516                   591,50                   0,00                   591,50
ALEJANDRA DANIELA LOPEZ MOLINA                V       15626862              F       19820820                   591,50                   0,00                   591,50
ALEXANDER JOSÉ MORÓN CHIRINOS               V       12100756              M       19750719                   591,50                   0,00                   591,50
ALFONSO EMIRO VALLADARES GUTIERREZ            V       12803777              M       19751006                   591,50                   0,00                   591,50
ALI GUILLERMO OROÑO MARTINEZ                 V       17568955              M       19850222                   525,20                   0,00                   525,20
ANDREINA MARIA QUINTERO PALMA                 V       16457157              F       19831008                   526,00                   0,00                   526,00
ARBET ANTONIO DIAZ ORTEGA                     V       15162671              M       19820903                   547,00                   0,00                   547,00
AURA MARIA DELPINO RINCON                     V       14922861              F       19811201                   591,50                   0,00                   591,50
BELKIS BEATRIZ RUIZ                           V        8501855              F       19690113                   765,00                   0,00                   765,00
BETSABE JOSEFINA URDANETA CUENCA              V       12697913              F       19741020                   591,50                   0,00                   591,50
BLANCA VICTORIA CASTILLO                      V       13705968              F       19731116                   591,50                   0,00                   591,50
CARLOS ALBERTO LOPEZ NEGRETTE                 V       14747363              M       19790926                   526,00                   0,00                   526,00
CARLOS ENRIQUE BELTRAN LUENGO                 V        7825986              M       19650812                  1600,00                  0,00                  1600,00
CARLOS JULIO CUBILLAN ORTEGA                  V       17089742              M       19840407                   955,00                   0,00                   955,00
CARLOS LUIS SUAREZ CARRERA                    V       12665039              M       19751105                   547,00                   0,00                   547,00
CAROLINA DEL VALLE ANZOLA ACOSTA              V       13814628              F       19771218                  1600,00                  0,00                  1600,00
CESAR AUGUSTO BOSCAN RUIZ                     V       13575455              M       19761024                   591,50                   0,00                   591,50
DANIEL DAVID ROMAN VALLADARES                 V       15750602              M       19830109                   591,50                   0,00                   591,50
DOLANA KIZZI GASKIN LEON                      V       13878638              F       19781218                   591,50                   0,00                   591,50
EDWIN ALEXANDER LEAL PEREZ                    V       13003158              M       19760501                   765,00                   0,00                   765,00
ELEIDA RAMONA SARCOS DE ROMERO                V        3932223              F       19510831                  1600,00                  0,00                  1600,00
ELIO JOSE CARROZ MENDEZ                       V       16367957              M       19830404                   591,50                   0,00                   591,50
ELVINO JAVIER SACCUTI PEROZO                  V       17230091              M       19840716                   591,50                   0,00                   591,50
ENYERBETH JOSE ACOSTA CARRASQUERO             V       17735285              M       19860106                   547,00                   0,00                   547,00
ERYLCE ADRIANA DIAZ MENDEZ                    V       15060656              F       19820424                   591,50                   0,00                   591,50
FABIOLA CAROLINA LOPEZ MENDEZ                 V       13495884              F       19790125                  1600,00                  0,00                  1600,00
FACUNDO ROSARIO                               E       81265204              M       19550918                   516,50                   0,00                   516,50
FERNANDO ALBERTO MENDEZ ORTIGOZA              V        7767640              M       19631213                  1300,00                  0,00                  1300,00
FERNANDO JOSE MORENO PEROZO                   V       10080736              M       19681105                   591,50                   0,00                   591,50
FRANZ ANTONIO ORTEGA                          V        3462434              M       19471226                  1300,00                  0,00                  1300,00
GIOVANNY URBINA GARCIA                        V       12442463              M       19741011                   516,50                   0,00                   516,50
GUSTAVO ADOLFO NUÑEZ TORRES                  V       14895020              M       19801126                   516,50                   0,00                   516,50
ILEANNE DEL CARMEN URDANETA URDANETA           V       12946977              F       19780430                   955,00                   0,00                   955,00
IVAN JOSE PARRA GONZALEZ                      V       16607322              M       19811205                   591,50                   0,00                   591,50
JADIXON ALBERTO MUÑOZ FINOL                  V       17187832              M       19860716                   591,50                   0,00                   591,50
JARLEN JALUDI ALMARZA MEDINA                  V        8704227              M       19640928                  1300,00                  0,00                  1300,00
JONATHAN JAVIER TORRES LUZARDO                V       16213413              M       19821018                   547,00                   0,00                   547,00
JOSE ANGEL HUERTA ORTIGOZA                    V       16623175              M       19821209                   591,50                   0,00                   591,50
JOSE RAFAEL SANCHEZ PEREZ                     V       18005403              M       19850226                   591,50                   0,00                   591,50
KARY ALEJANDRA PRIETO DELGADO                 V       13370997              F       19780706                  1300,00                  0,00                  1300,00
LENNI RAMONA PIRONA HERNANDEZ                 V        7722713              F       19621122                  1300,00                  0,00                  1300,00
LUIS JOSE FRANCO RIOS                         V       12695672              M       19770221                   591,50                   0,00                   591,50
LUISA ELENA RAMIREZ GUTIERREZ                 V        4705347              F       19560126                  1300,00                  0,00                  1300,00
MAGALY CHIQUINQUIRA GOMEZ PEREZ               V       15239354              F       19791204                   591,50                   0,00                   591,50
MAGALY INES HERNANDEZ VALERA                  V        5046101              F       19550121                   526,00                   0,00                   526,00
MAGGILY BEATRIZ MONTILLA                      V       12588348              F       19760827                  1118,00                  0,00                  1118,00
MARCO ANTONIO ROMERO CALDERA                  V       15560152              M       19811002                   591,50                   0,00                   591,50
MARIA ANDREINA LABARCA URDANETA               V       16165079              F       19830809                   955,00                   0,00                   955,00
MARIA CECILIA FERRER LUDOVIC                  V       10409367              F       19730125                   955,00                   0,00                   955,00
MARIA ROSARIO CASTRO                          V        7971877              F       19651231                   591,50                   0,00                   591,50
MARIA TERESA HEVIA AGUILAR                    V       13372506              F       19780927                  2500,00                  0,00                  2500,00
MARISOL DEL CARMEN GONZALEZ COLMENARES           V        7829871              F       19641228                   591,50                   0,00                   591,50
MARLINETH CAROLINA ROMERO GALUÉ              V       17939884              F       19860531                   591,50                   0,00                   591,50
MELVIS GREGORIO SARCOS ESTRADA                V        7842590              M       19630627                   526,00                   0,00                   526,00
MERCY ELENA RINCON BRACHO                     V       15986782              F       19830830                   955,00                   0,00                   955,00
MILAGRO GREGORIA RINCON RAMIREZ               V       15748736              F       19820109                   640,00                   0,00                   640,00
MILEYDIS COROMOTO ATENCIO DE MORENO           V        5835995              F       19610312                  1600,00                  0,00                  1600,00
NAIRELYS LISSETTE LABARCA RAMIREZ             V       14525533              F       19801031                   591,50                   0,00                   591,50
NALBER ENRIQUE SUAREZ BOSCAN                  V        7974432              M       19660708                   591,50                   0,00                   591,50
NANCY MARINA PALMAR                           V        5439522              F       19570807                   591,50                   0,00                   591,50
NATALY DEL CARMEN GRANADILLO CARROZ           V       17566073              F       19841026                   591,50                   0,00                   591,50
NAYIBE LICETH COHEN                           V       13705211              F       19751107                  1300,00                  0,00                  1300,00
NELMIR SARI SANDOVAL RIERA                    V       15401115              M       19821004                   526,00                   0,00                   526,00
NELVIN EDUARDO ALEMAN PRIETO                  V       14424576              M       19790908                   591,50                   0,00                   591,50
NORA ESTHER BERMUDEZ SUAREZ                   V        7770647              F       19640814                  1118,00                  0,00                  1118,00
OSVALDO ENRIQUE GARCIA CHACIN                 V        3110614              M       19470110                   547,00                   0,00                   547,00
PABLO EMILIO VILORIA MANJARES                 V       22460353              M       19491206                   547,00                   0,00                   547,00
ROGER MIGUEL VIVAS SANCHEZ                    V       17566312              M       19850826                   591,50                   0,00                   591,50
RONALD MACLELLAN SWANSTON RAMOS               V       10578164              M       19690723                  1600,00                  0,00                  1600,00
RONANGEL DE JESUS MARTINEZ CARDENAS           V       13742827              M       19751003                   591,50                   0,00                   591,50
ROSANGEL CECILIA BUTRON ANDRADE               V       13495641              F       19781122                  2500,00                  0,00                  2500,00
SIMÓN ESTEBÁN VILLASMIL APARICIO            V       18873261              M       19880225                   547,00                   0,00                   547,00
VERONICA SOFIA CHACIN ESPINOZA                V       17545446              F       19850205                   955,00                   0,00                   955,00
VINICIO ROBERTO ADRIANZA RANGEL               V       13371324              M       19790225                   591,50                   0,00                   591,50
YESSENIA MARLY SANDREA CASTRO                 V       13590666              F       19781028                   591,50                   0,00                   591,50
YLLEN BEATRIZ URDANETA ROMAN                  V       14135522              F       19771219                   591,50                   0,00                   591,50
YOLEIDA BEATRIZ MALDONADO ZERPA               V       16079137              F       19821001                   591,50                   0,00                   591,50
YOLEIDA COROMOTO RONDON DE AVILA              V        7709851              F       19620715                  1300,00                  0,00                  1300,00
YOYSELYN DEL VALLE ORDOÑEZ LUZARDO           V       16622761              F       19830718                   955,00                   0,00                   955,00

                                                                                                                       66927,20                     0,00                  66927,20
