11394602                ANA CAROLAS          PARRA SOTO               01/11/2005                                                                INTENDENCIA MUNICIPAL                                                                 ANALISTA DE RECAUDACION I01340001620011164927        1910000
14525451            JAVIER ENRIQUES       GARCIA ACOSTA               17/09/2007                                                            COORDINACION DE SEGURIDAD                                                                                 VIGILANTE01340001620011176429        1033000
7893530               MARCO ANTONIO              ROMERO               15/05/2008                                                                     GERENCIA GENERAL                                                                                 MENSAJERO01340001610011176996        1033000
16150843              ERIMARY ELENA       URIBE BARRIOS               06/10/2008                                                                 UNIDAD DE ATENCION A                                                                          GUIA ORIENTADORA01340001600011177154        1058000
13244179             JOHSY CAROLINA         AVILA MATOS               01/07/2003                                                      UNIDAD DE SERVICIOS MUNICIPALES                                                             JEFE DE SERVICIOS MUNICIPALES01340526315261015201        1910000
17736479               JOSE ROBERTO          DAO BOSCAN               08/05/2007                                                                   UNIDAD DE TRIBUTOS                                                                       ANALISTA TRIBUTARIO01340001640011173934        1183000
4747440           MARIA DEL ROSARIO           NAVA PANA               01/07/2003                                                                     GERENCIA GENERAL                                                              JEFE DE CONSULTORIA JURIDICA01340081450811117595        3200000
9774031          MARITZA DEL CARMEN    MONTAÑO CHOURIO               01/07/2003                                                                UNIDAD DE CONSULTORIA                                                         ASISTENTE DE CONSULTORIA JURIDICA01340001630012206003        1183000
12872088                  MARI SOLE        ESTEVA PARRA               02/05/2006                                                                UNIDAD DE CONSULTORIA                                                                          ANALISTA LEGAL I01340001680011167810        1910000
13511980                 YLSA PAOLA      GARCIA OCTAVIO               01/12/2003                                                UNIDAD DE TRANSACCIONES INMOBILIARIAS                                                                      FISCAL DE REGISTROS 01340001670011152376        1910000
15938948             YESILEE ELEIDA    ISAMBERT JIMENEZ               26/02/2007                                                                UNIDAD DE CONSULTORIA                                                                            ANALISTA LEGAL01340001600011172598        1910000
16782483           MONICA ALEXANDRA      GOMEZ AGUILERA               31/01/2006                                                UNIDAD DE TRANSACCIONES INMOBILIARIAS                                                                      FISCAL DE REGISTROS 01340001610011160255        1910000
10446772              JOSMEL RAFAEL      OVIEDO TINAURE               16/01/2006                                                                   UNIDAD DE TRIBUTOS                                                                       ANALISTA TRIBUTARIO01340001610011166105        1183000
14208674          YAMILETH CRISTINA            INCIARTE               03/12/2008                                                                 GERENCIA DE ADMINIST                                                                 GERENTE DE ADMINISTRACION01340086580861260379        5000000
14416757            DOHILME XIOMARA   RODRIGUEZ CORDERO               10/02/2009                                                                 UNIDAD DE ADMINISTRA                                                                    JEFE DE ADMINISTRACION01340073340731060987        3200000
16118034         ADRIANA EMPERATRIZ   HERNANDEZ SANCHEZ               17/02/2009                                                           UNIDAD DE RECURSOS HUMANOS                                                                    JEFE DE RRHH Y NÓMINA01340073300731060984        3200000
12442463                   GIOVANNY       URBINA GARCIA               17/04/2006                                                                 UNIDAD DE ADMINISTRA                                                                                 MENSAJERO01340001630013199973        1033000
16622761         YOYSELYN DEL VALLE    ORDOÑEZ LUZARDO               01/01/2005                                                                   UNIDAD DE TRIBUTOS                                                                       ANALISTA TRIBUTARIO01340001630011173926        1910000
13003158            EDWIN ALEXANDER          LEAL PEREZ               02/04/2007                                                               UNIDAD DE CONTABILIDAD                                                                         ANALISTA CONTABLE01340001620011173241        1530000
15748736           MILAGRO GREGORIA      RINCON RAMIREZ               01/11/2003                                                               UNIDAD DE CONTABILIDAD                                                                         ANALISTA CONTABLE01340001630011151957        1280000
12946977         ILEANNE DEL CARMEN   URDANETA URDANETA               13/12/2004                                                                   UNIDAD DE TRIBUTOS                                                                       ANALISTA TRIBUTARIO01340001610011157459        1910000
17566312               ROGER MIGUEL       VIVAS SANCHEZ               14/04/2003                                                           UNIDAD DE RECURSOS HUMANOS                                                                 ANALISTA DE RRHH Y NOMINA01340001640011175473        1183000
7829871          MARISOL DEL CARMEN GONZALEZ COLMENARES               01/07/2003                                                                       UNIDAD DE CAJA                                                                           CAJERO INTEGRAL01340526315262067507        1183000
10578164           RONALD MACLELLAN      SWANSTON RAMOS               20/06/2005                                                                       UNIDAD DE CAJA                                                                          CAJERO PRINCIPAL01340001690011159729        3200000
12100756            ALEXANDER JOSÉ     MORÓN CHIRINOS               16/05/2007                                                                       UNIDAD DE CAJA                                                                           CAJERO INTEGRAL01340001640011174078        1183000
14525533          NAIRELYS LISSETTE     LABARCA RAMIREZ               14/04/2003                                                                       UNIDAD DE CAJA                                                                           CAJERO INTEGRAL01340001600011166431        1183000
15560152              MARCO ANTONIO      ROMERO CALDERA               20/06/2005                                                                       UNIDAD DE CAJA                                                                           CAJERO INTEGRAL01340001600011159737        1183000
15750602               DANIEL DAVID    ROMAN VALLADARES               01/10/2005                                                                       UNIDAD DE CAJA                                                                           CAJERO INTEGRAL01340077660771143520        1183000
5439522                NANCY MARINA              PALMAR               01/07/2003                                                             UNIDAD ANALISIS DE COBRO                                                                   ANALISTA DE RECAUDACION01340001640011150217        1183000
7825986              CARLOS ENRIQUE      BELTRAN LUENGO               01/08/2006                                                             UNIDAD ANALISIS DE COBRO                                                  JEFE DE LA UNIDAD DE ESTUDIOS ECONOMICOS01340001610011166601        3200000
13495641           ROSANGEL CECILIA      BUTRON ANDRADE               04/12/2008                                                              GERENCIA DE RECAUDACION                                                                          GTE RECAUDACIÓN01340086550861260375        5000000
15239354        MAGALY CHIQUINQUIRA         GOMEZ PEREZ               14/04/2003                                                             UNIDAD ANALISIS DE COBRO                                                                   ANALISTA DE RECAUDACION01340526395261015104        1183000
7770647                 NORA ESTHER     BERMUDEZ SUAREZ               01/07/2003                                                                  GESTION DE COBRANZA                                                                      ANALISTA DE COBRANZA01340526325261015228        2236000
3932223               ELEIDA RAMONA    SARCOS DE ROMERO               01/07/2003                                                                 UNIDAD DE INMUEBLES                                                                   JEFE DE INMUEBLES URBANO01340001690011158242        3200000
12803777              ALFONSO EMIROVALLADARES GUTIERREZ               12/07/2005                                                                   UNIDAD DE TRIBUTOS                                                                       ANALISTA TRIBUTARIO01340001660011159966        1183000
5046101                 MAGALY INES    HERNANDEZ VALERA               01/07/2003                                                UNIDAD DE TRANSACCIONES INMOBILIARIAS                                                                      FISCAL DE REGISTROS 01340001690011150187        1052000
7842590             MELVIS GREGORIO      SARCOS ESTRADA               14/04/2003                                                UNIDAD DE TRANSACCIONES INMOBILIARIAS                                                                      FISCAL DE REGISTROS 01340078400782134426        1052000
10409367              MARIA CECILIA      FERRER LUDOVIC               14/04/2003                                                                   UNIDAD DE TRIBUTOS                                                                       ANALISTA TRIBUTARIO01340078410782134272        1910000
13590666             YESSENIA MARLY      SANDREA CASTRO               14/04/2003                                                UNIDAD DE TRANSACCIONES INMOBILIARIAS                                                                      FISCAL DE REGISTROS 01340078410782134280        1183000
13878638               DOLANA KIZZI         GASKIN LEON               16/04/2007                                                UNIDAD DE TRANSACCIONES INMOBILIARIAS                                                                      FISCAL DE REGISTROS 01340001690011173470        1183000
14747363             CARLOS ALBERTO      LOPEZ NEGRETTE               26/02/2007                                                UNIDAD DE TRANSACCIONES INMOBILIARIAS                                                                      FISCAL DE REGISTROS 01340001610011172695        1052000
15401115                NELMIR SARI      SANDOVAL RIERA               16/04/2007                                                             UNIDAD ANALISIS DE COBRO                                                                   ANALISTA DE RECAUDACION01340001610011173497        1052000
15626862          ALEJANDRA DANIELA        LOPEZ MOLINA               01/11/2004                                                                 UNIDAD DE INMUEBLES                                                                       ANALISTA DE INMUEBLE01340001650011176792        1183000
15986782                MERCY ELENA       RINCON BRACHO               26/02/2007                                                                UNIDAD DE CONSULTORIA                                                                          ANALISTA LEGAL I01340001690011172660        1910000
16165079             MARIA ANDREINA    LABARCA URDANETA               01/08/2008                                                                UNIDAD DE CONSULTORIA                                                                          ANALISTA LEGAL I01340001610011177072        1910000
16213413            JONATHAN JAVIER      TORRES LUZARDO               13/07/2005                                                UNIDAD DE TRANSACCIONES INMOBILIARIAS                                                                      FISCAL DE REGISTROS 01340001660011157912        1094000
16213954             AITZA ANDREINA   ESPINOZA GONZALEZ               26/02/2007                                                                 UNIDAD DE INMUEBLES                                                                       ANALISTA DE INMUEBLE01340001630011172601        1183000
16367957                  ELIO JOSE       CARROZ MENDEZ               26/02/2007                                                                 UNIDAD DE ADMINISTRA                                                                   ANALISTA DE PRESUPUESTO01340001600011172679        1183000
16457157             ANDREINA MARIA      QUINTERO PALMA               26/02/2007                                                                UNIDAD DE ESPECTACULO                                                           FISCAL DE ESPECTACULOS PUBLICOS01340001670011172644        1052000
17230091              ELVINO JAVIER      SACCUTI PEROZO               17/09/2007                                                                UNIDAD DE ESPECTACULO                                                           FISCAL DE ESPECTACULOS PUBLICOS01340001630011175465        1183000
17545446             VERONICA SOFIA     CHACIN ESPINOZA               01/06/2008                                                                 UNIDAD DE CONTROL IN                                                                   JEFE DE CONTROL INTERNO01340001690011177017        1910000
18005403                JOSE RAFAEL       SANCHEZ PEREZ               17/09/2007                                                                   UNIDAD DE TRIBUTOS                                                                       ANALISTA TRIBUTARIO01340001630011175384        1183000
7971877               MARIA ROSARIO              CASTRO               01/07/2003                                                                   UNIDAD DE TRIBUTOS                                                                       ANALISTA TRIBUTARIO01340001690012206143        1183000
8501855              BELKIS BEATRIZ                RUIZ               01/07/2003                                                                   UNIDAD DE TRIBUTOS                                                                           JEFE DE TRIBUTO01340077620773152640        1530000
12588348            MAGGILY BEATRIZ            MONTILLA               23/05/2005                                                                     GERENCIA GENERAL                                                COORDINADOR DE ASISTENCIA AL CONTRIBUYENTE01340001630011159184        2236000
12695672                  LUIS JOSE         FRANCO RIOS               16/05/2004                                                UNIDAD DE TRANSACCIONES INMOBILIARIAS                                                                      FISCAL DE REGISTROS 01340001630011176843        1183000
13371324            VINICIO ROBERTO     ADRIANZA RANGEL               01/07/2003                                                                   UNIDAD DE TRIBUTOS                                                                       ANALISTA TRIBUTARIO01340001650011150225        1183000
13705968            BLANCA VICTORIA            CASTILLO               01/07/2003                                                                   UNIDAD DE TRIBUTOS                                                                       ANALISTA TRIBUTARIO01340526315262067515        1183000
13742827          RONANGEL DE JESUS   MARTINEZ CARDENAS               01/07/2003                                                                   UNIDAD DE TRIBUTOS                                                                       ANALISTA TRIBUTARIO01340001650011150144        1183000
13814628         CAROLINA DEL VALLE       ANZOLA ACOSTA               01/09/2004                                                                    UNIDAD DE LICORES                                                                           JEFE DE LICORES01340001620011158285        3200000
14424576             NELVIN EDUARDO       ALEMAN PRIETO               01/10/2004                                                                   UNIDAD DE TRIBUTOS                                                                       ANALISTA TRIBUTARIO01340001670011166407        1183000
14895020             GUSTAVO ADOLFO       NUÑEZ TORRES               16/05/2007                                                                   UNIDAD DE TRIBUTOS                                                                                 MENSAJERO01340001600011174108        1033000
16623175                 JOSE ANGEL     HUERTA ORTIGOZA               01/10/2005                                                                   UNIDAD DE TRIBUTOS                                                                       ANALISTA TRIBUTARIO01340077650771143512        1183000
17187832            JADIXON ALBERTO        MUÑOZ FINOL               01/09/2005                                                                   UNIDAD DE TRIBUTOS                                                                       ANALISTA TRIBUTARIO01340001600012231695        1183000
17939884         MARLINETH CAROLINA       ROMERO GALUÉ               09/05/2005                                                                   UNIDAD DE TRIBUTOS                                                                       ANALISTA TRIBUTARIO01340001610011177010        1183000
15060656             ERYLCE ADRIANA         DIAZ MENDEZ               02/01/2008                                                UNIDAD DE TRANSACCIONES INMOBILIARIAS                                                                      FISCAL DE REGISTROS 01340001660011176881        1183000
81265204                    FACUNDO             ROSARIO               01/07/2003                                                                 UNIDAD DE FISCALIZAC                                                                                    FISCAL01340077600771137598        1033000
13575455              CESAR AUGUSTO         BOSCAN RUIZ               01/07/2003                                                            UNIDAD DE SOPORTE TECNICO                                                                   JEFE DE SOPORTE TECNICO01340001600012206070        1183000
3110614             OSVALDO ENRIQUE       GARCIA CHACIN               20/06/2005                                                                    UNIDAD DE ARCHIVO                                                                       AUXILIAR DE ARCHIVO01340001610011159745        1094000
12665039                CARLOS LUIS      SUAREZ CARRERA               02/01/2004                                                                    UNIDAD DE ARCHIVO                                                                       AUXILIAR DE ARCHIVO01340001600012211155        1094000
15162671              ARBET ANTONIO         DIAZ ORTEGA               16/01/2006                                                                    UNIDAD DE ARCHIVO                                                                       AUXILIAR DE ARCHIVO01340001630011166121        1094000
17568955              ALI GUILLERMO     OROÑO MARTINEZ               16/04/2007                                                                    UNIDAD DE ARCHIVO                                                                       AUXILIAR DE ARCHIVO01340001600011173489        1050400
17735285             ENYERBETH JOSE  ACOSTA CARRASQUERO               01/02/2006                                                                    UNIDAD DE ARCHIVO                                                                       AUXILIAR DE ARCHIVO01340001670012231822        1094000
18873261            SIMÓN ESTEBÁN  VILLASMIL APARICIO               10/04/2006                                                                    UNIDAD DE ARCHIVO                                                                       AUXILIAR DE ARCHIVO01340001620012228155        1094000
22460353               PABLO EMILIO    VILORIA MANJARES               01/08/2004                                                                    UNIDAD DE ARCHIVO                                                                       AUXILIAR DE ARCHIVO01340001680012219970        1094000
13372506               MARIA TERESA       HEVIA AGUILAR               04/12/2008                                                                 GERENCIA DE AUDITORI                                                                          GTE FISC Y AUDIT01340086530861260376        5000000
5835995           MILEYDIS COROMOTO   ATENCIO DE MORENO               01/07/2003                                                             UNIDAD ANALISIS DE COBRO                                                                   ANALISTA DE RECAUDACION01340001660011150071        3200000
16079137            YOLEIDA BEATRIZ     MALDONADO ZERPA               16/02/2006                                                                 UNIDAD DE FISCALIZAC                                                                                    FISCAL01340001640012230311        1183000
16607322                  IVAN JOSE      PARRA GONZALEZ               23/06/2004                                                                 UNIDAD DE FISCALIZAC                                                                                    FISCAL01340001640012217641        1183000
3462434               FRANZ ANTONIO              ORTEGA               01/09/2004                                                                  UNIDAD DE AUDITORIA                                                                                   AUDITOR01340001680011155995        2600000
4705347                 LUISA ELENA   RAMIREZ GUTIERREZ               01/07/2003                                                                  UNIDAD DE AUDITORIA                                                                                   AUDITOR01340526375261015198        2600000
7709851            YOLEIDA COROMOTO     RONDON DE AVILA               01/07/2003                                                                  UNIDAD DE AUDITORIA                                                                                   AUDITOR01340526345261015163        2600000
7722713                LENNI RAMONA    PIRONA HERNANDEZ               15/08/2003                                                                  UNIDAD DE AUDITORIA                                                                                   AUDITOR01340001680011150926        2600000
7767640            FERNANDO ALBERTO     MENDEZ ORTIGOZA               01/07/2003                                                                  UNIDAD DE AUDITORIA                                                                                   AUDITOR01340526305261015112        2600000
8704227               JARLEN JALUDI      ALMARZA MEDINA               01/07/2003                                                                  UNIDAD DE AUDITORIA                                                                                   AUDITOR01340001660011150152        2600000
12697913           BETSABE JOSEFINA     URDANETA CUENCA               14/04/2003                                                UNIDAD DE TRANSACCIONES INMOBILIARIAS                                                                      FISCAL DE REGISTROS 01340001650011175139        1183000
13370997             KARY ALEJANDRA      PRIETO DELGADO               01/08/2003                                                                  UNIDAD DE AUDITORIA                                                                                   AUDITOR01340001640011150640        2600000
13495884           FABIOLA CAROLINA        LOPEZ MENDEZ               13/03/2006                                                                  UNIDAD DE AUDITORIA                                                                              AUDITOR-JEFE01340001640011167020        3200000
13705211              NAYIBE LICETH               COHEN               16/02/2006                                                                  UNIDAD DE AUDITORIA                                                                                   AUDITOR01340001630011166717        2600000
17089742               CARLOS JULIO     CUBILLAN ORTEGA               07/03/2006                                                                   UNIDAD DE TRIBUTOS                                                                       ANALISTA TRIBUTARIO01340001610011166954        1910000
7974432              NALBER ENRIQUE       SUAREZ BOSCAN               02/07/2007                                                                    UNIDAD DE LICORES                                                                         FISCAL DE LICORES01340001640011174744        1183000
10080736              FERNANDO JOSE       MORENO PEROZO               01/11/2004                                                                    UNIDAD DE LICORES                                                                         FISCAL DE LICORES01340001620012224753        1183000
14135522              YLLEN BEATRIZ      URDANETA ROMAN               12/09/2005                                                                    UNIDAD DE LICORES                                                                           JEFE DE LICORES01340001610011162460        1183000
17566073          NATALY DEL CARMEN   GRANADILLO CARROZ               01/11/2007                                                UNIDAD DE TRANSACCIONES INMOBILIARIAS                                                                      FISCAL DE REGISTROS 01340001630011176860        1183000
14922861                 AURA MARIA      DELPINO RINCON               24/09/2007                                                                 GERENCIA DE COMUNICA                                                                       DISEÑADORA GRAFICA01340001630011175899        1183000
15854890            AIBELIN YORLITH       LABARCA MORAN               25/07/2005                                                                 GERENCIA DE COMUNICA                                                                   ASISTENTE DE COMUNICION01340001600011160239        1183000
17183634        NIOZMA CHIQUINQUIRA   ARAUJO TORRENEGRA               02/01/2009                                                                 GERENCIA DE COMUNICA                                                                      GERENTE DE COMUNICAC01340001690011177194        5000000
15060671               ALEXIS DAVID         ARTETA RUIZ               01/09/2004                                                         UNIDAD DE NUEVAS TECNOLOGIAS                                                                JEFE DE NUEVAS TECNOLOGIAS01340001640012214111        3244000
15840522               RAQUEL ELENA             BARBOZA               24/09/2009                                                                UNIDAD DE CONSULTORIA                                                                          ANALISTA LEGAL I01340945579461203090        1910000
                            vacante                                   23/07/2009                                                               UNIDAD DE CONTABILIDAD                                                                         ANALISTA CONTABLE                       1280000
                            vacante                                   23/07/2009                                                                 GERENCIA DE AUDITORI                                                                                    FISCAL                       1183000
                            vacante                                   23/07/2009                                                                 UNIDAD DE FISCALIZAC                                                                                    FISCAL                       1183000
                            vacante                                   23/07/2009                                                                 UNIDAD DE FISCALIZAC                                                                                    FISCAL                       1183000
                            vacante                                   23/07/2009                                                                 UNIDAD DE FISCALIZAC                                                                                    FISCAL                       1183000
                            vacante                                   23/07/2009                                                                 UNIDAD DE FISCALIZAC                                                                                    FISCAL                       1183000
                            vacante                                   23/07/2009                                                                  UNIDAD DE AUDITORIA                                                                                   AUDITOR                       2600000
                            vacante                                   23/07/2009                                                                  UNIDAD DE AUDITORIA                                                                                   AUDITOR                       2600000
                            vacante                                   23/07/2009                                                                  UNIDAD DE AUDITORIA                                                                                   AUDITOR                       2600000
                            vacante                                   23/07/2009                                                                  UNIDAD DE AUDITORIA                                                                                   AUDITOR                       2600000
                            vacante                                   23/07/2009                                                                    UNIDAD DE LICORES                                                                                    FISCAL                       1183000
                            vacante                                   23/07/2009                                                                    UNIDAD DE LICORES                                                                                    FISCAL                       1183000
                            vacante                                   23/07/2009                                                                 GERENCIA DE TECNOLOG                                                                      GERENTE DE TECNOLOGI                       5000000
                            vacante                                   25/11/2009                                                                UNIDAD DE CONSULTORIA                                                                            ANALISTA LEGAL                       1910000
                            vacante                                   25/11/2009                                                                 UNIDAD DE ADMINISTRA                                                                   ASISTENTE DE SUMINISTRO                       1033000
                            vacante                                   25/11/2009                                                                UNIDAD DE CONSULTORIA                                                                          ANALISTA LEGAL I                       1910000
                            vacante                                   25/11/2009                                                                 GERENCIA DE TRIBUTOS                                                                      FISCAL DE REGISTROS                        1910000
                            vacante                                   25/11/2009                                                                 GERENCIA DE TRIBUTOS                                                                     JEFE DE TRANSACCIONES                       3200000
                            vacante                                   25/11/2009                                                                 GERENCIA DE TRIBUTOS                                                                          GTE LIQUIDACIÓN                       5000000
                            vacante                                   25/11/2009                                                                 GERENCIA DE TRIBUTOS                                                                         JEFE ESP PUBLICOS                       3200000
                            vacante                                   25/11/2009                                                                 GERENCIA DE TRIBUTOS                                                                      FISCAL DE REGISTROS                        1052000
                            vacante                                   25/11/2009                                                                 GERENCIA DE TRIBUTOS                                                                      FISCAL DE REGISTROS                        1052000
                            vacante                                   25/11/2009                                                                   UNIDAD DE TRIBUTOS                                                                       ANALISTA TRIBUTARIO                       1183000
                            vacante                                   25/11/2009                                                            UNIDAD DE SOPORTE TECNICO                                                                      ANALISTA DE SOPORTE                        1530000
16730099               LUIS GERARDO      ARAUJO BENCOMO               01/04/2009                                                            UNIDAD DE SOPORTE TECNICO                                                                      ANALISTA DE SOPORTE 01340945559461140204        1183000
15009363            LUZVANI ARIAMNA       ARRIETA RAMOS               21/04/2009                                                                  UNIDAD DE AUDITORIA                                                                                   AUDITOR01340073330731061047        2600000
12867597                RODOLFO RAY            BOLAÑOS               26/11/2009                                                                  UNIDAD DE AUDITORIA                                                                                   AUDITOR01340073320731061042        2600000
17098102                      SINDY        CHARLES NAVA               15/07/2009                                                                UNIDAD DE CONSULTORIA                                                                          ANALISTA LEGAL I01340077620771158859        1910000
10447638               JOSE GREGORI       DELEL RAMIREZ               21/04/2009                                                                 UNIDAD DE FISCALIZAC                                                                                    FISCAL01340073380731061067        1183000
14299382              CARLOS ANDRES         FARIA FARIA               15/07/2009                                                                 GERENCIA DE TRIBUTOS                                                                          GTE LIQUIDACIÓN01340079240791131744        5000000
12972115                LUIS JAVIER       ECHETO MENDEZ               15/07/2009                                                             UNIDAD ANALISIS DE COBRO                                                                   ANALISTA DE RECAUDACION01340077640771158858        1910000
15658655             ROBERTO CARLOS      FINOL GRAZIANO               21/04/2009                                                                 UNIDAD DE FISCALIZAC                                                                                    FISCAL01340073390731061061        1183000
16212877            MELISSA TATANIA        FLORES SALAS               21/04/2009                                                                  UNIDAD DE AUDITORIA                                                                                   AUDITOR01340073360731061054        2600000
10446795                     ELIETH      GANDO SULBARAN               29/09/2009                                           UNIDAD DE COMERCIALIZACION Y PLANIFICACION                                                  JEFE DE COMERCIALIZACION Y PLANIFICACION01340073380731061246        3200000
7818837              LEONOR CECILIA        GARCIA LUQUE               13/07/2007                                                UNIDAD DE TRANSACCIONES INMOBILIARIAS                                                                     JEFE DE TRANSACCIONES01340077660771158857        3200000
7773404                HUGO ALBERTO               GOMEZ               26/11/2009                                                                 UNIDAD DE ADMINISTRA                                                                                 MENSAJERO01340945519461204776        1183000
18064357       YASENIA DE LOS ANGELES    GONZALEZ MARRUFO               01/08/2009                                                             UNIDAD ANALISIS DE COBRO                                                                 ANALISTA DE RECAUDACION I01340073350731061211        1910000
16783492              ROSA VIRGINIA        HENAO MOLERO               21/04/2009                                                                  UNIDAD DE AUDITORIA                                                                                   AUDITOR01340073300731061049        2600000
14832933             FRANCISCO JOSE      URRUTIA PERICH               21/04/2009                                                                 UNIDAD DE FISCALIZAC                                                                                    FISCAL01340073300731061066        1183000
7710939                GLENN RAFAEL    VALBUENA DELGADO               21/04/2009                                                                 UNIDAD DE FISCALIZAC                                                                                    FISCAL01340073370731061059        1183000
15726901           SABRINA VIRGINIA  VILLALOBOS ANDRADE               27/04/2009                                                             UNIDAD ANALISIS DE COBRO                                                                 ANALISTA DE RECAUDACION I01340073380731061070        1910000
13575258             ALBERTO JAVIER   VILLASMIL MORALES               20/07/2009                                                                UNIDAD DE CONSULTORIA                                                                          ANALISTA LEGAL I01340526325261029369        1910000
16781679               CARLOS JULIO    RODRIGUEZ FERRER               21/04/2009                                                                 UNIDAD DE FISCALIZAC                                                                                    FISCAL01340073310731061057        1183000
13742011            MARIA ALEJANDRA          LEAL PARRA               21/04/2009                                                                  UNIDAD DE AUDITORIA                                                                                   AUDITOR01340073330731061050        2600000
15409751              ISIMAR CLARET     MADUEÑO CHACIN               15/07/2009                                                UNIDAD DE TRANSACCIONES INMOBILIARIAS                                                                      FISCAL DE REGISTROS 01340077660771158860        1910000
17804230             MANUEL ARMANDO   MANRIQUE URDANETA               29/09/2009                                                      UNIDAD DE SERVICIOS MUNICIPALES                                                         ANALISTA DE SERVICIOS MUNICIPALES01340945569461205916        1910000
4748787                 RAMON DARIO      MARCANO GOTOPO               20/04/2009                                                                       UNIDAD DE CAJA                                                                           CAJERO INTEGRAL01340073310731061051        1183000
16018044             KAREN CRISTINA      MATOS CARRILLO               17/04/2009                                                                       UNIDAD DE CAJA                                                                         ASISTENTE DE CAJA01340073300731061052        1910000
16017754               EDWIN JAVIER        MEDINA OCHOA               03/03/2009                                                                 GERENCIA DE TECNOLOG                                                                      GERENTE DE TECNOLOGI01340945529461127866        5000000
15052430               RAUL ERNESTO    MONTIEL URDANETA               21/04/2009                                                                  UNIDAD DE AUDITORIA                                                                                   AUDITOR01340073380731061053        2600000
11962576               OSWALDO JOSE    MELENDEZ PACHECO               21/04/2009                                                                  UNIDAD DE AUDITORIA                                                                                   AUDITOR01340073320731061039        2600000
13471412               JAFET RAFAEL            NEMOCON                25/03/2009                                                                 UNIDAD DE FISCALIZAC                                                                                    FISCAL01340073390731061058        1183000
18285287              JOSE FERNANDO          PAEZ SOLER               20/07/2009                                                               UNIDAD DE CONTABILIDAD                                                                         ANALISTA CONTABLE01340945549461183272        1183000
10152737             RENNY RAIMUNDO               PARRA               25/05/2009                                                           UNIDAD DE RECURSOS HUMANOS                                                                 ANALISTA DE RRHH Y NOMINA01340945549461157254        1910000
7759308               ENDER EDUARDO         PEREZ LEYBA               21/04/2009                                                                  UNIDAD DE AUDITORIA                                                                                   AUDITOR01340073320731061056        2600000
7756543             ENRIQUE AMERICO         REYES PEÑA               13/07/2009                                                                 UNIDAD DE FISCALIZAC                                                                    JEFE DE FISCALIZACIÓN01340073330731061212        3200000
18285952             MARIA VERONICA      RINCON HURTADO               22/04/2009                                                                UNIDAD DE CONSULTORIA                                                                          ANALISTA LEGAL I01340073360731061071        1910000
13878945            AIMETH PATRICIA      SALCEDO BRACHO               01/11/2009                                                      UNIDAD DE SERVICIOS MUNICIPALES                       COORDINADOR DE ASISTENCIA AL CONTRIBUYENTE DE SERVICIOS MUNICIPALES01340073300731061245        2236000
5163590             HERMILO SEGUNDO       ROMERO PIRELA               01/07/2003                                                                    UNIDAD DE ARCHIVO                                                             JEFE DE LA UNIDAD DE ARCHIVOS01340001630011150209        3200000
15889449          YENY CHIQUINQUIRA    BECERRA QUINTERO               01/11/2009                                                               UNIDAD DE CONTABILIDAD                                                                         ANALISTA CONTABLE01340945519461230746        1910000
9711473                MARIA ISABEL    SOCORRO ALBORNOZ               13/07/2009                                                                UNIDAD DE ESPECTACULO                                                                         JEFE ESP PUBLICOS01340077620771158862        3200000
12257005              ROBERTO ANGEL        DUARTE REYES               21/04/2009                                                                 UNIDAD DE FISCALIZAC                                                                                    FISCAL01340073310731061065        1183000
7603010                   RENE JOSE      PEÑA CASTILLO               13/07/2009                                                                UNIDAD DE CONSULTORIA                                                                          ANALISTA LEGAL I01340945579461183357        1910000
                            vacante                                   10/01/2010                                                                INTENDENCIA MUNICIPAL                                                                  ASISTENTE DEL INTENDENTE                       1910000
                            vacante                                   11/01/2010                                                                INTENDENCIA MUNICIPAL                                                                  ASISTENTE DEL INTENDENTE                       1910000
16213337        MARILIANA DEL VALLE    MORALES GONZALEZ               13/01/2010                                                                   UNIDAD DE TRIBUTOS                                                                       ANALISTA TRIBUTARIO01340945519461238863        1530000
5054840             EGLE DEL CARMEN            MONTILLA               13/01/2010                                                                   UNIDAD DE TRIBUTOS                                                                       ANALISTA TRIBUTARIO01340945509461240033        1530000
10448006           LISBETH JOSEFINA    ALMARZA INCIARTE               13/01/2010                                                                   UNIDAD DE TRIBUTOS                                                                       ANALISTA TRIBUTARIO01340945549461240036        1530000
8695932                  SIDOR JOSE      ROSAS PORTILLO               01/02/2010                                                                   UNIDAD DE TRIBUTOS                                                                       ANALISTA TRIBUTARIO01340945539461243320        1183000
17805699             IRENE CAROLINA       YBARRA ROMERO               01/02/2010                                                                   UNIDAD DE TRIBUTOS                                                                       ANALISTA TRIBUTARIO01340945559461243316        1530000
14748134              JONATHAN JOSE         VERA ROMERO               01/02/2010                                                                   UNIDAD DE TRIBUTOS                                                                       ANALISTA TRIBUTARIO01340945589461243323        1910000
17097688             RICARDO JAVIER       RUGAMA FLORES               01/02/2010                                                                   UNIDAD DE TRIBUTOS                                                                       ANALISTA TRIBUTARIO01340079240791131873        1910000
14370354             EDWARD ALBERTO        MATOS ZABALA               01/02/2010                                                                 UNIDAD DE FISCALIZAC                                                                                    FISCAL01340945559461243882        1183000
16918134             NELSON GERARDO       MONTIEL FARIA               01/02/2010                                                         UNIDAD DE NUEVAS TECNOLOGIAS                                                            ANALISTA DE NUEVAS TECNOLOGIAS01340945589461242897        1910000
16212533       IVANNIA CHIQUINQUIRA    FERRER RODRIGUEZ               01/02/2010                                                                   UNIDAD DE TRIBUTOS                                                                       ANALISTA TRIBUTARIO01340945589461244956        1910000
17953098                OLGA ALICIA       CALLES NUÑEZ               01/02/2010                                                                   UNIDAD DE TRIBUTOS                                                                       ANALISTA TRIBUTARIO01340077670771159014        1910000
18395219            GERARDO ALBERTO     CAMACHO CAMACHO               01/02/2010                                                                 UNIDAD DE ADMINISTRA                                                                                 MENSAJERO01340077610771159017        1183000
14896619                     RUFINA     QUEVEDO ATENCIO               01/02/2010                                                                   UNIDAD DE TRIBUTOS                                                                       ANALISTA TRIBUTARIO01340945569461243467        1530000
18203493               PEDRO JAVIER    ESPINOZA DELGADO               18/01/2010                                                         UNIDAD DE NUEVAS TECNOLOGIAS                                                            ANALISTA DE NUEVAS TECNOLOGIAS01340077640773171123        3244000
9715305                     MILADYS           RODRIGUEZ               01/02/2010                                                               UNIDAD DE CONTABILIDAD                                                                         ANALISTA CONTABLE01340945509461247788        1910000
10424908             ENNIS GREGORIO       BRACHO BRACHO               18/01/2010                                                            UNIDAD DE SOPORTE TECNICO                                      ANALISTA DE SOPORTE TECNICO DE SERVICIOS MUNICIPALES01340946370001021211        1530000
                            vacante                                   12/02/2010                                                                     GERENCIA GENERAL                                                                   JEFE DE CONTROL INTERNO                       3200000
2222222                  Trabajador           de Prueba               09/05/2010                                                                INTENDENCIA MUNICIPAL                                                                ASISTENTE DE ESPC PUBLICOS                       1183000
